d:\documents\kuliah\tugasaljabar\debug\vc142.pdb
d:\documents\kuliah\tugasaljabar\debug\vc142.idb
d:\documents\kuliah\tugasaljabar\debug\tugasaljabar.obj
d:\documents\kuliah\tugasaljabar\debug\tugasaljabar.tlog\cl.command.1.tlog
d:\documents\kuliah\tugasaljabar\debug\tugasaljabar.tlog\cl.read.1.tlog
d:\documents\kuliah\tugasaljabar\debug\tugasaljabar.tlog\cl.write.1.tlog
